<svg xmlns="http://www.w3.org/2000/svg" xmlns:xlink="http://www.w3.org/1999/xlink" width="500" height="1231" viewBox="0 0 500 1231">
  <defs>
    <style>
      .cls-1 {
        clip-path: url(#clip-Layout_small_screen_open_menu);
      }

      .cls-2 {
        fill: #84c9d9;
      }

      .cls-10, .cls-11, .cls-12, .cls-3, .cls-5, .cls-9 {
        fill: #fff;
      }

      .cls-3 {
        font-size: 16px;
      }

      .cls-3, .cls-9 {
        font-family: Lato-Regular, Lato;
      }

      .cls-4 {
        fill: #0d2c40;
      }

      .cls-6, .cls-7 {
        fill: none;
      }

      .cls-7 {
        stroke: #314c5d;
      }

      .cls-8 {
        fill: #00c081;
      }

      .cls-9 {
        font-size: 14px;
      }

      .cls-10, .cls-11 {
        font-size: 18px;
      }

      .cls-10, .cls-12 {
        font-family: MaterialIcons-Regular, Material Icons;
      }

      .cls-11 {
        font-family: Lato-Bold, Lato;
        font-weight: 700;
      }

      .cls-12 {
        font-size: 24px;
      }
    </style>
    <clipPath id="clip-Layout_small_screen_open_menu">
      <rect width="500" height="1231"/>
    </clipPath>
  </defs>
  <g id="Layout_small_screen_open_menu" data-name="Layout small screen open menu" class="cls-1">
    <rect class="cls-5" width="500" height="1231"/>
    <g id="Back_to_index" data-name="Back to index">
      <rect id="Rectangle_110" data-name="Rectangle 110" class="cls-2" width="157" height="57" transform="translate(314 746)"/>
      <text id="Back_to_index-2" data-name="Back to  index" class="cls-3" transform="translate(340 779)"><tspan x="0" y="0" xml:space="preserve">Back to  index</tspan></text>
    </g>
    <g id="Main_menu_collapsed_" data-name="Main menu collapsed ">
      <rect id="Rectangle_90" data-name="Rectangle 90" class="cls-4" width="500" height="1159" transform="translate(0 72)"/>
      <g id="baseline-keyboard_arrow_down-24px" transform="translate(458 404)">
        <path id="Path_7" data-name="Path 7" class="cls-5" d="M7.41,8.59,12,13.17l4.59-4.58L18,10l-6,6L6,10Z" transform="translate(-3 -3.107)"/>
        <path id="Path_8" data-name="Path 8" class="cls-6" d="M0,0H18V18H0Z"/>
      </g>
      <line id="Line_29" data-name="Line 29" class="cls-7" x1="500" transform="translate(0 138)"/>
      <path id="Rectangle_127" data-name="Rectangle 127" class="cls-8" d="M0,0H498a2,2,0,0,1,2,2V32a2,2,0,0,1-2,2H0a0,0,0,0,1,0,0V0A0,0,0,0,1,0,0Z" transform="translate(0 256)"/>
      <text id="Dashboard_Primary_page" data-name="Dashboard / Primary page" class="cls-9" transform="translate(50 96)"><tspan x="0" y="14">Dashboard / Primary page</tspan></text>
      <text id="dashboard" class="cls-10" transform="translate(24 96)"><tspan x="0" y="18">dashboard</tspan></text>
      <text id="Section_1" data-name="Section 1" class="cls-9" transform="translate(50 162)"><tspan x="0" y="14">Section 1</tspan></text>
      <text id="Section_2" data-name="Section 2" class="cls-9" transform="translate(50 196)"><tspan x="0" y="14">Section 2</tspan></text>
      <text id="Section_3" data-name="Section 3" class="cls-9" transform="translate(50 230)"><tspan x="0" y="14">Section 3</tspan></text>
      <text id="Section_4" data-name="Section 4" class="cls-9" transform="translate(50 264)"><tspan x="0" y="14">Section 4</tspan></text>
      <text id="Section_5" data-name="Section  5" class="cls-9" transform="translate(50 300)"><tspan x="0" y="14" xml:space="preserve">Section  5</tspan></text>
      <text id="Section_6" data-name="Section 6" class="cls-9" transform="translate(50 348)"><tspan x="0" y="0">Section 6</tspan></text>
      <text id="Section_7" data-name="Section 7" class="cls-9" transform="translate(50 367)"><tspan x="0" y="14">Section 7</tspan></text>
      <text id="notifications" class="cls-10" transform="translate(24 162)"><tspan x="0" y="18">notifications</tspan></text>
      <text id="crop_16_9" class="cls-10" transform="translate(24 196)"><tspan x="0" y="18">crop_16_9</tspan></text>
      <text id="color_lens" class="cls-10" transform="translate(24 230)"><tspan x="0" y="18">color_lens</tspan></text>
      <text id="text_fields" class="cls-10" transform="translate(24 352)"><tspan x="0" y="0">text_fields</tspan></text>
      <text id="spellcheck" class="cls-10" transform="translate(24 369)"><tspan x="0" y="18">spellcheck</tspan></text>
      <text id="Section_with_subsection" data-name="Section with subsection" class="cls-9" transform="translate(50 401)"><tspan x="0" y="14">Section with subsection</tspan></text>
      <text id="build" class="cls-10" transform="translate(24 403)"><tspan x="0" y="18">build</tspan></text>
      <text id="assessment" class="cls-10" transform="translate(24 264)"><tspan x="0" y="18">assessment</tspan></text>
      <text id="date_range" class="cls-10" transform="translate(24 300)"><tspan x="0" y="18">date_range</tspan></text>
      <line id="Line_32" data-name="Line 32" class="cls-7" x1="500" transform="translate(0 72)"/>
    </g>
    <g id="Main_menu" data-name="Main menu">
      <rect id="Rectangle_87" data-name="Rectangle 87" class="cls-4" width="500" height="72"/>
      <text id="LOGO" class="cls-11" transform="translate(210 24)"><tspan x="0" y="18">LOGO</tspan></text>
      <text id="dehaze" class="cls-12" transform="translate(452 24)"><tspan x="0" y="24">dehaze</tspan></text>
    </g>
    <g id="Back_to_index-3" data-name="Back to index">
      <rect id="Rectangle_110-2" data-name="Rectangle 110" class="cls-2" width="157" height="57" transform="translate(314 746)"/>
      <text id="Back_to_index-4" data-name="Back to  index" class="cls-3" transform="translate(340 779)"><tspan x="0" y="0" xml:space="preserve">Back to  index</tspan></text>
    </g>
  </g>
</svg>
